{
    "scan_dict": {
        "smag": [
            0.7,
            1
        ]
    },
    "scan_type": "hyperedge",
    "xpoint_base": {
        "elec": {
            "T": 8.0,
            "n": 5.0,
            "At": 9.0,
            "An": 3.0,
            "type": 1,
            "anis": 1.0,
            "danisdr": 0.0
        },
        "ions": [
            {
                "A": 2.0,
                "Z": 1.0,
                "T": 8.0,
                "n": 1.0,
                "At": 9.0,
                "An": 3.0,
                "type": 1,
                "anis": 1.0,
                "danisdr": 0.0
            }
        ],
        "meta": {
            "phys_meth": 2,
            "coll_flag": false,
            "rot_flag": 0,
            "verbose": true,
            "separateflux": true,
            "write_primi": true,
            "numsols": 3,
            "relacc1": 0.001,
            "relacc2": 0.02,
            "maxruns": 1,
            "maxpts": 250000.0,
            "timeout": 600,
            "ETGmult": 1,
            "collmult": 1,
            "simple_mpi_only": true,
            "integration_routine": 1
        },
        "special": {
            "kthetarhos": [
                0.325,
                4
            ]
        },
        "geometry": {
            "x": 0.5,
            "rho": 0.45,
            "Ro": 3.0,
            "Rmin": 1.0,
            "Bo": 3.0,
            "q": 2.0,
            "smag": 1.0,
            "alpha": 0.0,
            "Machtor": 0.0,
            "Autor": 0.0,
            "Machpar": 0.0,
            "Aupar": 0.0,
            "gammaE": 0.0
        },
        "options": {
            "set_qn_normni": true,
            "set_qn_normni_ion": 0,
            "set_qn_An": true,
            "set_qn_An_ion": 0,
            "check_qn": true,
            "x_eq_rho": true,
            "recalc_Nustar": false,
            "recalc_Ti_Te_rel": false,
            "assume_tor_rot": true,
            "puretor_abs_var": "Machtor",
            "puretor_grad_var": "gammaE"
        }
    }
}
