{
    "scan_dict": {
        "smag": [
            -0.8,
            -0.2,
            0.1,
            0.4,
            0.7,
            1.0,
            1.3,
            1.9
        ]
    },
    "scan_type": "hyperedge",
    "xpoint_base": {
        "elec": {
            "T": 3.0,
            "n": 3.1,
            "At": 5.5,
            "An": 3.3,
            "type": 1,
            "anis": 1.0,
            "danisdr": 0.0
        },
        "ions": [
            {
                "A": 2.0,
                "Z": 1.0,
                "T": 4.2,
                "n": 1.0,
                "At": 6.3,
                "An": 3.3,
                "type": 1,
                "anis": 1.0,
                "danisdr": 0.0
            }
        ],
        "meta": {
            "phys_meth": 1,
            "coll_flag": true,
            "rot_flag": 0,
            "verbose": 1,
            "separateflux": 0,
            "write_primi": true,
            "numsols": 3,
            "relacc1": 0.001,
            "relacc2": 0.02,
            "absacc1": 0,
            "absacc2": 0,
            "maxruns": 1,
            "maxpts": 500000.0,
            "timeout": 20,
            "ETGmult": 1,
            "collmult": 1,
            "rhomin": 0,
            "rhomax": 1,
            "simple_mpi_only": true,
            "integration_routine": 1
        },
        "special": {
            "kthetarhos": [
                0.1,
                0.175,
                0.25,
                0.325,
                0.4,
                0.5,
                0.7,
                1.0,
                1.8,
                3.0,
                9.0,
                15.0,
                21.0,
                27.0,
                36.0,
                45.0
            ]
        },
        "geometry": {
            "x": 0.54,
            "rho": 0.54,
            "Ro": 3.0,
            "Rmin": 1.0,
            "Bo": 3.0,
            "q": 2.0,
            "smag": 1.0,
            "alpha": 0.0,
            "Machtor": 0.0,
            "Autor": -0.0,
            "Machpar": 0.0,
            "Aupar": -0.0,
            "gammaE": 0.0
        },
        "options": {
            "set_qn_normni": false,
            "set_qn_normni_ion": 0,
            "set_qn_An": false,
            "set_qn_An_ion": 0,
            "check_qn": true,
            "x_eq_rho": false,
            "recalc_Nustar": false,
            "recalc_Ti_Te_rel": false,
            "assume_tor_rot": true,
            "puretor_abs_var": "Machtor",
            "puretor_grad_var": "gammaE"
        }
    }
}
