{
    "scan_dict": {
        "Ati": [
            2.0,
            3.0,
            4.0,
            5.0,
            8.0,
            10.0,
            12.0,
            15.0
        ]
    },
    "scan_type": "hyperedge",
    "xpoint_base": {
        "elec": {
            "T": 8.0,
            "n": 5.0,
            "At": 9.0,
            "An": 3.0,
            "type": 1,
            "anis": 1.0,
            "danisdr": 0.0
        },
        "ions": [
            {
                "A": 2.0,
                "Z": 1.0,
                "T": 8.0,
                "n": 0.74,
                "At": 0.0,
                "An": 3.035135,
                "type": 1,
                "anis": 1.0,
                "danisdr": 0.0
            },
            {
                "A": 9.0,
                "Z": 4.0,
                "T": 8.0,
                "n": 0.05,
                "At": 0.0,
                "An": 2.9,
                "type": 1,
                "anis": 1.0,
                "danisdr": 0.0
            },
            {
                "A": 12.0,
                "Z": 6.0,
                "T": 8.0,
                "n": 0.01,
                "At": 0.0,
                "An": 2.9,
                "type": 1,
                "anis": 1.0,
                "danisdr": 0.0
            }
        ],
        "meta": {
            "phys_meth": 1,
            "coll_flag": true,
            "rot_flag": 0,
            "verbose": true,
            "separateflux": true,
            "write_primi": true,
            "numsols": 2,
            "relacc1": 0.001,
            "relacc2": 0.02,
            "absacc1": 0,
            "absacc2": 0,
            "maxruns": 1,
            "maxpts": 500000.0,
            "timeout": 60,
            "ETGmult": 1,
            "collmult": 1,
            "rhomin": 0,
            "rhomax": 1,
            "simple_mpi_only": 0,
            "integration_routine": 1
        },
        "special": {
            "kthetarhos": [
                0.1,
                0.175,
                0.25,
                0.325,
                0.4,
                0.5,
                0.6,
                0.8,
                1.0,
                2.0,
                3.5,
                6.0,
                10.5,
                15,
                19.5,
                24,
                30,
                36
            ]
        },
        "geometry": {
            "x": 0.45,
            "rho": 0.45,
            "Ro": 3.0,
            "Rmin": 1.0,
            "Bo": 3.0,
            "q": 2.0,
            "smag": 1.0,
            "alpha": 0.0,
            "Machtor": 0.0,
            "Autor": 0.0,
            "Machpar": 0.0,
            "Aupar": 0.0,
            "gammaE": 0.0
        },
        "options": {
            "set_qn_normni": false,
            "set_qn_normni_ion": 0,
            "set_qn_An": false,
            "set_qn_An_ion": 0,
            "check_qn": true,
            "x_eq_rho": true,
            "recalc_Nustar": false,
            "recalc_Ti_Te_rel": false,
            "assume_tor_rot": true,
            "puretor_abs_var": "Machtor",
            "puretor_grad_var": "gammaE"
        }
    }
}
