   3.318693        6.216110        7.020825     
   3.210562        5.998126        6.776667     
   2.908504        5.407396        6.114315     
   2.723927        5.005318        5.656842     
   13.32714        13.47982        12.61214     
   21.69970        23.39336        22.30120     
   23.83401        26.45942        25.84856     
   20.93302        22.11511        21.63955     
