   1673048.        0.000000        0.000000     
   1909924.        0.000000        0.000000     
   1939038.        0.000000        0.000000     
   1995809.        0.000000        0.000000     
   1389414.        0.000000        0.000000     
   998554.9        0.000000        0.000000     
   401137.9        0.000000        0.000000     
   0.000000        0.000000        0.000000     
