   0.000000        0.000000        0.000000     
   0.000000        0.000000        0.000000     
   0.000000        0.000000        0.000000     
   0.000000        0.000000        0.000000     
   14.71869        50.84350        0.000000     
   32.87218        92.89610        0.000000     
   60.45766        188.9260        0.000000     
   100.1306        232.3512        0.000000     
