  0.3339644E+022  0.8872787E+022  0.4099029E+022  0.2460108E+022  0.1688192E+022  0.1173066E+022  0.6842987E+021   0.000000        0.000000        0.000000        0.000000        0.000000        0.000000        0.000000        0.000000        0.000000     
  0.2906103E+022  0.7631604E+022  0.3449046E+022  0.2101467E+022  0.1461111E+022  0.1029012E+022  0.6311087E+021   0.000000        0.000000        0.000000        0.000000        0.000000        0.000000        0.000000        0.000000        0.000000     
   0.000000       0.3569584E+022  0.1700226E+022  0.9433079E+021  0.5883856E+021  0.3477174E+021  0.1990355E+021  0.1410578E+021 -0.2732398E+019   0.000000        0.000000        0.000000        0.000000        0.000000        0.000000        0.000000     
 -0.2139141E+020  0.2631981E+021 -0.6739168E+020 -0.2555439E+021 -0.2449676E+021 -0.2188583E+021 -0.1240446E+021 -0.8261948E+020 -0.1274239E+020   0.000000        0.000000        0.000000        0.000000        0.000000        0.000000        0.000000     
 -0.6530362E+022 -0.3013071E+022 -0.1742663E+022 -0.1224174E+022 -0.8590120E+021 -0.5566815E+021 -0.3275610E+021 -0.8674025E+020 -0.1326499E+020   0.000000        0.000000        0.000000        0.000000        0.000000        0.000000        0.000000     
 -0.6404688E+022 -0.2799300E+022 -0.1518371E+022 -0.9399590E+021 -0.5998256E+021 -0.3259512E+021 -0.1247019E+021 -0.3495213E+020 -0.5355624E+019   0.000000        0.000000        0.000000        0.000000        0.000000        0.000000        0.000000     
 -0.4266334E+022 -0.1789037E+022 -0.9508116E+021 -0.5447322E+021 -0.3190288E+021 -0.1495956E+021 -0.3247831E+020 -0.1157738E+020 -0.1351830E+019   0.000000        0.000000        0.000000        0.000000        0.000000        0.000000        0.000000     
 -0.5452620E+021 -0.2369867E+021 -0.1180796E+021 -0.4706305E+020 -0.7863335E+019   0.000000        0.000000        0.000000        0.000000        0.000000        0.000000        0.000000        0.000000        0.000000        0.000000        0.000000     
